<?xml version="1.0" encoding="UTF-8" standalone="no"?>
<svg
   sodipodi:docname="opencollective.svg"
   id="svg838"
   version="1.1"
   fill="none"
   viewBox="0 0 32 32"
   height="32"
   width="32"
   inkscape:version="1.1 (c68e22c387, 2021-05-23)"
   xmlns:inkscape="http://www.inkscape.org/namespaces/inkscape"
   xmlns:sodipodi="http://sodipodi.sourceforge.net/DTD/sodipodi-0.dtd"
   xmlns="http://www.w3.org/2000/svg"
   xmlns:svg="http://www.w3.org/2000/svg">
  <defs
     id="defs842" />
  <sodipodi:namedview
     id="namedview840"
     pagecolor="#ffffff"
     bordercolor="#666666"
     borderopacity="1.0"
     inkscape:pageshadow="2"
     inkscape:pageopacity="0.0"
     inkscape:pagecheckerboard="0"
     showgrid="false"
     inkscape:zoom="24.46875"
     inkscape:cx="16"
     inkscape:cy="16"
     inkscape:window-width="1920"
     inkscape:window-height="1001"
     inkscape:window-x="-9"
     inkscape:window-y="-9"
     inkscape:window-maximized="1"
     inkscape:current-layer="svg838" />
  <path
     fill-rule="evenodd"
     clip-rule="evenodd"
     d="M29.1531 6.8877C30.948 9.47379 31.9999 12.614 31.9999 16.0003C31.9999 19.3866 30.948 22.5271 29.1531 25.1129L25.0085 20.9684C25.8225 19.4957 26.2858 17.8019 26.2858 16.0003C26.2858 14.1987 25.8225 12.5052 25.0085 11.0325L29.1531 6.8877Z"
     fill="#464646"
     id="path834" />
  <path
     fill-rule="evenodd"
     clip-rule="evenodd"
     d="M25.1126 2.84685L20.9678 6.99138C19.4951 6.17745 17.8016 5.71417 16 5.71417C10.3194 5.71417 5.71418 10.3194 5.71418 16C5.71418 21.6806 10.3194 26.2858 16 26.2858C17.8016 26.2858 19.4951 25.8226 20.9678 25.0086L25.1126 29.1532C22.5265 30.948 19.3863 32 16 32C7.16352 32 0 24.8365 0 16C0 7.16351 7.16352 0 16 0C19.3863 0 22.5265 1.05197 25.1126 2.84685Z"
     fill="#040404"
     id="path836" />
</svg>
